29 95 100
0 82 1
0 67 1
0 85 1
0 54 1
0 5 1
0 76 1
0 18 1
0 31 1
1 64 2
1 11 2
1 58 2
1 91 2
1 68 2
2 80 3
2 11 3
2 13 3
2 70 3
3 72 4
3 8 4
3 42 4
3 51 4
3 71 4
4 97 5
4 67 5
4 20 5
4 56 5
4 88 5
4 89 5
4 74 5
4 7 5
5 82 6
5 67 6
5 76 6
5 18 6
5 31 6
6 24 7
6 10 7
6 93 7
6 46 7
6 77 7
7 97 8
7 83 8
7 20 8
7 85 8
7 56 8
7 89 8
7 74 8
8 72 9
8 71 9
9 81 10
9 83 10
9 21 10
9 33 10
9 26 10
9 45 10
9 47 10
10 34 4
10 42 2
10 93 9
10 30 3
10 77 1
11 96 2
11 80 2
11 68 7
11 70 2
11 58 5
11 91 2
11 13 2
12 39 4
12 99 3
12 60 3
12 37 8
12 55 3
13 80 6
13 70 4
13 58 4
13 91 4
14 64 5
14 19 5
14 43 8
14 61 3
14 78 5
14 15 1
15 19 6
15 25 6
15 43 6
15 61 6
15 78 6
16 49 7
16 50 7
16 35 7
16 86 4
16 54 7
16 38 7
16 92 2
16 94 7
17 48 8
17 32 8
17 52 4
17 73 8
17 90 8
17 62 6
17 63 8
18 33 9
18 83 9
18 85 3
18 54 9
18 26 6
18 76 9
18 31 9
19 64 10
19 78 3
19 43 10
19 61 10
20 97 1
20 67 1
20 88 1
20 89 3
20 74 1
21 96 2
21 56 2
21 68 5
21 47 2
23 51 4
23 29 4
24 77 5
24 46 5
25 81 6
25 59 2
25 43 6
25 27 6
25 30 5
26 33 7
26 83 7
26 85 5
26 38 7
26 45 7
27 81 8
27 38 8
27 59 8
27 45 2
27 30 8
28 65 9
28 66 9
28 36 5
28 39 9
28 60 9
28 79 9
29 51 10
30 81 1
30 59 2
30 93 1
30 77 1
31 82 2
31 67 2
31 85 2
31 76 2
32 48 3
32 52 3
32 90 3
32 62 3
32 63 3
33 83 4
33 85 5
33 38 4
33 54 4
34 42 5
34 93 5
34 77 5
35 49 6
35 50 2
35 86 6
35 54 6
35 38 6
35 92 6
35 94 5
35 69 6
36 65 7
36 39 7
36 60 7
36 79 7
37 55 8
38 49 9
38 86 9
38 54 9
39 65 10
39 99 10
39 60 10
42 51 3
42 71 3
42 72 3
42 93 3
42 77 3
43 78 4
43 61 4
44 98 5
44 87 5
45 81 6
45 83 6
47 96 8
47 68 8
47 58 8
47 61 8
47 78 8
48 52 9
48 73 9
48 90 9
48 62 9
48 63 9
49 50 10
49 86 10
49 54 10
49 92 10
49 94 10
50 98 1
50 86 1
50 92 1
50 94 1
51 72 2
51 71 2
52 90 3
52 62 3
52 63 3
54 85 5
54 86 5
54 76 5
54 94 5
55 99 6
55 87 6
56 97 7
56 89 7
56 74 7
57 82 8
57 67 8
57 84 8
58 96 9
58 68 9
58 70 9
58 91 9
59 81 10
60 65 1
60 99 1
61 64 2
61 78 2
62 66 3
62 90 3
62 95 3
62 63 3
63 73 4
63 90 4
63 79 4
64 78 5
65 66 6
65 79 6
66 73 7
66 95 7
66 79 7
67 82 8
67 88 8
67 89 8
68 96 9
68 91 9
68 78 9
69 98 10
70 96 1
70 97 1
70 80 1
71 72 2
73 90 4
73 79 4
74 97 5
74 89 5
76 86 7
76 94 7
76 85 7
77 93 8
82 84 3
82 88 3
83 85 4
85 89 6
86 92 7
86 94 7
88 89 9
89 97 10
91 96 2
92 98 3
92 94 3
92 95 3
94 95 5