This is a list of all the United States Supreme Court cases from volume 385 of the United States Reports:
Senfour Investment Co. v. King County, 385 U.S. 1 (1966) (per curiam)
Jones v. Association of Bar of City of New York, 385 U.S. 2 (1966) (per curiam)
Morris Park, Inc. v. Buck, 385 U.S. 2 (1966) (per curiam)
Baltimore & Ohio R. Co. v. United States, 385 U.S. 3 (1966) (per curiam)
Buchanan v. Rhodes, 385 U.S. 3 (1966) (per curiam)
Jordan v. Menomonee Falls, 385 U.S. 4 (1966) (per curiam)
Bennett v. United States, 385 U.S. 4 (1966) (per curiam)
Annbar Associates v. West Side Redevelopment Corp., 385 U.S. 5 (1966) (per curiam)
Glick v. Ballentine Produce, Inc., 385 U.S. 5 (1966) (per curiam)
Kronsbein v. Trustees of Schools of Township Three, 385 U.S. 6 (1966) (per curiam)
Board of Satanta Joint Rural High School Dist. No. 2 v. Grant County Planning Board, 385 U.S. 6 (1966) (per curiam)
Dowdle v. New York, 385 U.S. 7 (1966) (per curiam)
Calcaterra v. Illinois, 385 U.S. 7 (1966) (per curiam)
Tietz v. Marienthal, 385 U.S. 8 (1966) (per curiam)
Reynolds v. Louisiana Bd. of Alcoholic Beverage Control, 385 U.S. 8 (1966) (per curiam)
United States v. Ohio, 385 U.S. 9 (1966) (per curiam)
Ferrante v. City of New York, 385 U.S. 9 (1966) (per curiam)
Reed v. Illinois, 385 U.S. 10 (1966) (per curiam)
Treffry v. Taylor, 385 U.S. 10 (1966) (per curiam)
Capelouto v. Orkin Exterminating Co. of Fla., 385 U.S. 11 (1966) (per curiam)
Maslowsky v. Cassidy, 385 U.S. 11 (1966) (per curiam)
Bookcase, Inc. v. Leary, 385 U.S. 12 (1966) (per curiam)
Guy v. Tahash, 385 U.S. 12 (1966) (per curiam)
Neumann v. New York, 385 U.S. 13 (1966) (per curiam)
McClellan v. Huston, 385 U.S. 13 (1966) (per curiam)
Cross v. Bruning, 385 U.S. 14 (1966) (per curiam)
Wakin v. Pennsylvania, 385 U.S. 14 (1966) (per curiam)
Boyden v. May, 385 U.S. 15 (1966) (per curiam)
Bradford v. Helman, 385 U.S. 15 (1966) (per curiam)
Spiesel v. Roos, 385 U.S. 16 (1966) (per curiam)
Bradford v. Postel, 385 U.S. 16 (1966) (per curiam)
Kemp v. Hults, 385 U.S. 17 (1966) (per curiam)
Phelper v. Decker, 385 U.S. 18 (1966) (per curiam)
McGill v. Ryals, 385 U.S. 19 (1966) (per curiam)
Atlantic Coast Line R. Co. v. Trainmen, 385 U.S. 20 (1966) (per curiam)
Giles v. Friendly Finance Co. of Biloxi, 385 U.S. 21 (1966) (per curiam)
Johnson v. California, 385 U.S. 21 (1966) (per curiam)
Colorado-Ute Elec. Assn., Inc. v. Western Colo. Power Co., 385 U.S. 22 (1966) (per curiam)
Bradford v. Gavagan, 385 U.S. 22 (1966) (per curiam)
Switzerland Cheese Assn., Inc. v. E. Horne's Market, Inc., 385 U.S. 23 (1966)
Black v. United States, 385 U.S. 26 (1966) (per curiam)
Pittsburgh Towing Co. v. Mississippi Valley Barge Line Co., 385 U.S. 32 (1966) (per curiam)
Kelsey v. Corbett, 385 U.S. 35 (1966) (per curiam)
Carr v. Altus, 385 U.S. 35 (1966) (per curiam)
Massey v. Georgia, 385 U.S. 36 (1966) (per curiam)
Matranga v. McDonnell, 385 U.S. 36 (1966) (per curiam)
Jos. Schlitz Brewing Co. v. United States, 385 U.S. 37 (1966) (per curiam)
Transit Union v. United States, 385 U.S. 38 (1966) (per curiam)
Adderley v. Florida, 385 U.S. 39 (1966)
Illinois Central R. Co. v. Norfolk & Western R. Co., 385 U.S. 57 (1966)
Cichos v. Indiana, 385 U.S. 76 (1966)
United Gas Pipe Line Co. v. FPC, 385 U.S. 83 (1966)
O'Connor v. Ohio, 385 U.S. 92 (1966) (per curiam)
United States v. Saskatchewan Minerals, 385 U.S. 94 (1966) (per curiam)
Board of Satanta Joint Rural High School Dist. No. 2 v. Haskell County Planning Board, 385 U.S. 96 (1966) (per curiam)
Little v. Rhay, 385 U.S. 96 (1966) (per curiam)
Board of Public Works of Md. v. Horace Mann League of United States of America, Inc., 385 U.S. 97 (1966) (per curiam)
Hall v. Mississippi, 385 U.S. 98 (1966) (per curiam)
Bank of Marin v. England, 385 U.S. 99 (1966)
Badgley v. Hare, 385 U.S. 114 (1966) (per curiam)
Boyden v. California, 385 U.S. 114 (1966) (per curiam)
Battaglia v. United States, 385 U.S. 115 (1966) (per curiam)
Bond v. Floyd, 385 U.S. 116 (1966)
United States v. Acme Process Equipment Co., 385 U.S. 138 (1966)
United States v. Demko, 385 U.S. 149 (1966)
Transportation-Communication Employees v. Union Pacific R. Co., 385 U.S. 157 (1966)
Canada Packers, Ltd. v. Atchison, T. & S. F. R. Co., 385 U.S. 182 (1966) (per curiam)
Watkins v. Conway, 385 U.S. 188 (1966) (per curiam)
Long v. District Court of Iowa, Lee Cty., 385 U.S. 192 (1966) (per curiam)
Walker v. Southern R. Co., 385 U.S. 196 (1966) (per curiam)
New England Motor Rate Bureau, Inc. v. United States, 385 U.S. 203 (1966) (per curiam)
Cady v. Missouri ex rel. State Highway Comm'n of Mo., 385 U.S. 204 (1966) (per curiam)
Ministers Life & Casualty Union v. Haase, 385 U.S. 205 (1966) (per curiam)
Lewis v. United States, 385 U.S. 206 (1966)
INS v. Errico, 385 U.S. 214 (1966)
Fortson v. Morris, 385 U.S. 231 (1966)
First Nat. Bank of Logan v. Walker Bank & Trust Co., 385 U.S. 252 (1966)
United States v. Fabrizio, 385 U.S. 263 (1966)
Woodby v. INS, 385 U.S. 276 (1966)
Hoffa v. United States, 385 U.S. 293 (1966)
Osborn v. United States, 385 U.S. 323 (1966)
Department of Employment v. United States, 385 U.S. 355 (1966)
Heider v. Michigan Sugar Co., 385 U.S. 362 (1966) (per curiam)
Parker v. Gladden, 385 U.S. 363 (1966) (per curiam)
Mason v. Biloxi, 385 U.S. 370 (1966) (per curiam)
French v. California, 385 U.S. 370 (1966) (per curiam)
Exley Express, Inc. v. United States, 385 U.S. 371 (1966) (per curiam)
Laird & Co. v. Cheney, 385 U.S. 371 (1966) (per curiam)
Schipani v. United States, 385 U.S. 372 (1966) (per curiam)
General Motors Corp. v. Appeal Bd. of Mich. Employment Security Comm'n, 385 U.S. 373 (1966) (per curiam)
Time, Inc. v. Hill, 385 U.S. 374 (1967)
NLRB v. C & C Plywood Corp., 385 U.S. 421 (1967)
NLRB v. Acme Industrial Co., 385 U.S. 432 (1967)
Swann v. Adams, 385 U.S. 440 (1967)
In re Meeker, 385 U.S. 449 (1967) (per curiam)
Garcia v. Morales, 385 U.S. 449 (1967) (per curiam)
Kirkpatrick v. Preisler, 385 U.S. 450 (1967) (per curiam)
Nave v. Seattle, 385 U.S. 450 (1967) (per curiam)
Glouner v. Superior Court of Cal., County of Los Angeles, 385 U.S. 451 (1967) (per curiam)
Bogart v. Traynor, 385 U.S. 451 (1967) (per curiam)
Webster v. Lee County Dist. Court, 385 U.S. 452 (1967) (per curiam)
Hunter v. New York, 385 U.S. 452 (1967) (per curiam)
Roosevelt Raceway, Inc. v. County of Nassau, 385 U.S. 453 (1967) (per curiam)
Nehring v. DeKalb, 385 U.S. 453 (1967) (per curiam)
Federated Department Stores, Inc. v. Gerosa, 385 U.S. 454 (1967) (per curiam)
Duddleston v. Grills, 385 U.S. 455 (1967) (per curiam)
Droste v. Kerner, 385 U.S. 456 (1967) (per curiam)
Illinois Central R. Co. v. United States, 385 U.S. 457 (1967) (per curiam)
Lassen v. Arizona ex rel. Arizona Highway Dept., 385 U.S. 458 (1967)
United States v. Laub, 385 U.S. 475 (1967)
Travis v. United States, 385 U.S. 491 (1967)
Garrity v. New Jersey, 385 U.S. 493 (1967)
Spevack v. Klein, 385 U.S. 511 (1967)
McLeod v. General Elec. Co., 385 U.S. 533 (1967) (per curiam)
Alexander v. Board of Review, 385 U.S. 536 (1967) (per curiam)
McConaghy v. McConaghy, 385 U.S. 536 (1967) (per curiam)
Short v. Ness Produce Co., 385 U.S. 537 (1967) (per curiam)
Sims v. Georgia, 385 U.S. 538 (1967)
Whitus v. Georgia, 385 U.S. 545 (1967)
Spencer v. Texas, 385 U.S. 554 (1967)
Keyishian v. Board of Regents of Univ. of State of N. Y., 385 U.S. 589 (1967)
Berenyi v. District Director, INS, 385 U.S. 630 (1967)
Floyd & Beasley Transfer Co. v. United States, 385 U.S. 647 (1967) (per curiam)
Southern Pacific Co. v. Los Angeles, 385 U.S. 647 (1967) (per curiam)
D'Amico v. National Broadcasting Co., 385 U.S. 648 (1967) (per curiam)
McQuaid v. California, 385 U.S. 648 (1967) (per curiam)
Fein v. New York, 385 U.S. 649 (1967) (per curiam)
Sprowal v. New York, 385 U.S. 649 (1967) (per curiam)
Patterson v. Newport News, 385 U.S. 650 (1967) (per curiam)
Maxwell v. Bishop, 385 U.S. 650 (1967) (per curiam)


== External links ==
Supreme Court of the United States (www.supremecourt.gov)
United States Supreme Court cases in volume 385 (Open Jurist)
United States Supreme Court cases in volume 385 (FindLaw)
United States Supreme Court cases in volume 385 (Justia)